20:43:34.615	Finding local database @: './dat/data.db'

[WARNING] 20:43:34.616	Not found. Creating new database...

20:43:34.632		Creating tables:
20:43:34.684			'light' created.
20:43:34.710			'acceleration' created.
20:43:34.751			'global_position' created.
20:43:34.794			'air_pressure' created.
20:43:34.831			'sound' created.
20:43:34.869			'air_quality' created.
20:43:34.870	Starting.
20:43:34.871	Initilizing devices...
20:43:35.873		TSL2561: Powering ON.
20:43:35.879			TSL2561: Set to NORMAL_CLOCK_RATE.
20:43:35.884		MMA8451: Powering ON.
20:43:35.885			MMA8451: Set to BW_RATE_400HZ_BYTE.
20:43:36.320		Establishing communication with GPS.
20:43:36.326		Established.
20:43:36.327		MPL3115A2: Powering ON.
20:43:36.342		SGP30: Powering ON.
20:43:36.859	Done.
20:43:36.860	Succesfully started.

[WARNING] 20:43:40.226	Force stopping due to user.


20:43:40.317	Waiting for threads to finish.
20:43:40.420	Closing database connection.
20:43:40.420	Closing database connection.
20:43:40.422	Cleaning GPIO pins.
20:43:40.423	Stopped.
********************

20:43:57.774	Finding local database @: './dat/data.db'
20:43:57.774	Found and connected.
20:43:57.775	Verifying tables.
20:43:57.777			'light' created.
20:43:57.778			'acceleration' created.
20:43:57.778			'global_position' created.
20:43:57.778			'air_pressure' created.
20:43:57.779			'sound' created.
20:43:57.779			'air_quality' created.
20:43:57.780	Starting.
20:43:57.781	Initilizing devices...
20:43:58.783		TSL2561: Powering ON.
20:43:58.788			TSL2561: Set to NORMAL_CLOCK_RATE.
20:43:58.794		MMA8451: Powering ON.
20:43:58.795			MMA8451: Set to BW_RATE_400HZ_BYTE.
20:43:59.196		Establishing communication with GPS.
20:43:59.202		Established.
20:43:59.203		MPL3115A2: Powering ON.
20:43:59.218		SGP30: Powering ON.
20:43:59.761	Done.
20:43:59.761	Succesfully started.

[WARNING] 20:44:01.037	Force stopping due to user.


20:44:01.038	Waiting for threads to finish.
20:44:01.144	Closing database connection.
20:44:01.145	Closing database connection.
20:44:01.146	Cleaning GPIO pins.
20:44:01.147	Stopped.
********************

20:46:22.288	Finding local database @: './dat/data.db'
20:46:22.289	Found and connected.
20:46:22.290	Verifying tables.
20:46:22.292			'light' created.
20:46:22.292			'acceleration' created.
20:46:22.293			'global_position' created.
20:46:22.293			'air_pressure' created.
20:46:22.293			'sound' created.
20:46:22.294			'air_quality' created.
20:46:22.294	Starting.
20:46:22.295	Initilizing devices...
20:46:23.297		TSL2561: Powering ON.
20:46:23.303			TSL2561: Set to NORMAL_CLOCK_RATE.
20:46:23.308		MMA8451: Powering ON.
20:46:23.309			MMA8451: Set to BW_RATE_400HZ_BYTE.
20:46:23.711		Establishing communication with GPS.
20:46:23.718		Established.
20:46:23.719		MPL3115A2: Powering ON.
20:46:23.734		SGP30: Powering ON.
20:46:24.274	Done.
20:46:24.275	Succesfully started.

[WARNING] 20:46:26.992	Force stopping due to user.


20:46:26.993	Waiting for threads to finish.
20:46:27.547	Closing database connection.
20:46:27.547	Closing database connection.
20:46:27.549	Cleaning GPIO pins.
20:46:27.550	Stopped.
********************

20:46:40.704	Finding local database @: './dat/data.db'
20:46:40.705	Found and connected.
20:46:40.705	Verifying tables.
20:46:40.707			'light' created.
20:46:40.708			'acceleration' created.
20:46:40.708			'global_position' created.
20:46:40.709			'air_pressure' created.
20:46:40.709			'sound' created.
20:46:40.709			'air_quality' created.
20:46:40.710	Starting.
20:46:40.711	Initilizing devices...
20:46:41.713		TSL2561: Powering ON.
20:46:41.718			TSL2561: Set to NORMAL_CLOCK_RATE.
20:46:41.724		MMA8451: Powering ON.
20:46:41.725			MMA8451: Set to BW_RATE_400HZ_BYTE.
20:46:42.126		Establishing communication with GPS.
20:46:42.131		Established.
20:46:42.132		MPL3115A2: Powering ON.
20:46:42.147		SGP30: Powering ON.
20:46:42.689	Done.
20:46:42.690	Succesfully started.

[WARNING] 20:46:45.721	Force stopping due to user.


20:46:45.739	Waiting for threads to finish.
20:46:45.882	Closing database connection.
20:46:45.883	Closing database connection.
20:46:45.884	Cleaning GPIO pins.
20:46:45.884	Stopped.
********************

20:47:08.136	Finding local database @: './dat/data.db'

[WARNING] 20:47:08.142	Not found. Creating new database...

20:47:08.143		Creating tables:
20:47:08.156			'light' created.
20:47:08.168			'acceleration' created.
20:47:08.179			'global_position' created.
20:47:08.191			'air_pressure' created.
20:47:08.203			'sound' created.
20:47:08.215			'air_quality' created.
20:47:08.216	Starting.
20:47:08.217	Initilizing devices...
20:47:09.219		TSL2561: Powering ON.
20:47:09.224			TSL2561: Set to NORMAL_CLOCK_RATE.
20:47:09.230		MMA8451: Powering ON.
20:47:09.231			MMA8451: Set to BW_RATE_400HZ_BYTE.
20:47:09.633		Establishing communication with GPS.
20:47:09.639		Established.
20:47:09.640		MPL3115A2: Powering ON.
20:47:09.655		SGP30: Powering ON.
20:47:10.196	Done.
20:47:10.197	Succesfully started.

[WARNING] 20:47:19.529	Force stopping due to user.


20:47:19.532	Waiting for threads to finish.
20:47:19.693	Closing database connection.
20:47:19.694	Closing database connection.
20:47:19.695	Cleaning GPIO pins.
20:47:19.696	Stopped.
********************

20:47:58.757	Finding local database @: './dat/data.db'
20:47:58.757	Found and connected.
20:47:58.758	Verifying tables.
20:47:58.760			'light' created.
20:47:58.760			'acceleration' created.
20:47:58.761			'global_position' created.
20:47:58.761			'air_pressure' created.
20:47:58.761			'sound' created.
20:47:58.762			'air_quality' created.
20:47:58.762	Starting.
20:47:58.763	Initilizing devices...
20:47:59.765		TSL2561: Powering ON.
20:47:59.771			TSL2561: Set to NORMAL_CLOCK_RATE.
20:47:59.777		MMA8451: Powering ON.
20:47:59.777			MMA8451: Set to BW_RATE_400HZ_BYTE.
20:48:00.178		Establishing communication with GPS.
20:48:00.184		Established.
20:48:00.185		MPL3115A2: Powering ON.
20:48:00.200		SGP30: Powering ON.
20:48:00.742	Done.
20:48:00.743	Succesfully started.

[WARNING] 20:48:01.664	Force stopping due to user.


20:48:01.669	Waiting for threads to finish.
20:48:02.014	Closing database connection.
20:48:02.015	Closing database connection.
20:48:02.016	Cleaning GPIO pins.
20:48:02.017	Stopped.
********************

20:48:10.014	Finding local database @: './dat/data.db'
20:48:10.014	Found and connected.
20:48:10.015	Verifying tables.
20:48:10.017			'light' created.
20:48:10.018			'acceleration' created.
20:48:10.018			'global_position' created.
20:48:10.018			'air_pressure' created.
20:48:10.019			'sound' created.
20:48:10.019			'air_quality' created.
20:48:10.020	Starting.
20:48:10.021	Initilizing devices...
20:48:11.023		TSL2561: Powering ON.
20:48:11.029			TSL2561: Set to NORMAL_CLOCK_RATE.
20:48:11.034		MMA8451: Powering ON.
20:48:11.035			MMA8451: Set to BW_RATE_400HZ_BYTE.
20:48:11.438		Establishing communication with GPS.
20:48:11.444		Established.
20:48:11.445		MPL3115A2: Powering ON.
20:48:11.461		SGP30: Powering ON.
20:48:12.000	Done.
20:48:12.001	Succesfully started.

[WARNING] 20:48:13.028	Force stopping due to user.


20:48:13.039	Waiting for threads to finish.
20:48:13.407	Closing database connection.
20:48:13.407	Closing database connection.
20:48:13.409	Cleaning GPIO pins.
20:48:13.409	Stopped.
********************

20:48:21.794	Finding local database @: './dat/data.db'
20:48:21.794	Found and connected.
20:48:21.795	Verifying tables.
20:48:21.797			'light' created.
20:48:21.798			'acceleration' created.
20:48:21.798			'global_position' created.
20:48:21.798			'air_pressure' created.
20:48:21.799			'sound' created.
20:48:21.799			'air_quality' created.
20:48:21.800	Starting.
20:48:21.801	Initilizing devices...
20:48:22.803		TSL2561: Powering ON.
20:48:22.809			TSL2561: Set to NORMAL_CLOCK_RATE.
20:48:22.814		MMA8451: Powering ON.
20:48:22.815			MMA8451: Set to BW_RATE_400HZ_BYTE.
20:48:23.218		Establishing communication with GPS.
20:48:23.224		Established.
20:48:23.226		MPL3115A2: Powering ON.
20:48:23.241		SGP30: Powering ON.
20:48:23.780	Done.
20:48:23.781	Succesfully started.

[WARNING] 20:48:25.812	Force stopping due to user.


20:48:25.817	Waiting for threads to finish.
20:48:26.202	Closing database connection.
20:48:26.203	Closing database connection.
20:48:26.204	Cleaning GPIO pins.
20:48:26.205	Stopped.
********************

20:49:59.972	Finding local database @: './dat/data.db'
20:49:59.973	Found and connected.
20:49:59.973	Verifying tables.
20:49:59.975			'light' created.
20:49:59.976			'acceleration' created.
20:49:59.976			'global_position' created.
20:49:59.977			'air_pressure' created.
20:49:59.977			'sound' created.
20:49:59.978			'air_quality' created.
20:49:59.978	Starting.
20:49:59.979	Initilizing devices...
20:50:00.981		TSL2561: Powering ON.
20:50:00.987			TSL2561: Set to NORMAL_CLOCK_RATE.
20:50:00.992		MMA8451: Powering ON.
20:50:00.993			MMA8451: Set to BW_RATE_400HZ_BYTE.
20:50:01.396		Establishing communication with GPS.
20:50:01.402		Established.
20:50:01.403		MPL3115A2: Powering ON.
20:50:01.418		SGP30: Powering ON.
20:50:01.958	Done.
20:50:01.959	Succesfully started.

[WARNING] 20:50:03.967	Force stopping due to user.


20:50:03.985	Waiting for threads to finish.
20:50:04.456	Closing database connection.
20:50:04.457	Closing database connection.
20:50:04.459	Cleaning GPIO pins.
20:50:04.460	Stopped.
********************

20:50:18.231	Finding local database @: './dat/data.db'
20:50:18.231	Found and connected.
20:50:18.232	Verifying tables.
20:50:18.234			'light' created.
20:50:18.235			'acceleration' created.
20:50:18.235			'global_position' created.
20:50:18.235			'air_pressure' created.
20:50:18.236			'sound' created.
20:50:18.236			'air_quality' created.
20:50:18.237	Starting.
20:50:18.238	Initilizing devices...
20:50:19.240		TSL2561: Powering ON.
20:50:19.246			TSL2561: Set to NORMAL_CLOCK_RATE.
20:50:19.251		MMA8451: Powering ON.
20:50:19.252			MMA8451: Set to BW_RATE_400HZ_BYTE.
20:50:19.653		Establishing communication with GPS.
20:50:19.659		Established.
20:50:19.660		MPL3115A2: Powering ON.
20:50:19.676		SGP30: Powering ON.
20:50:20.217	Done.
20:50:20.218	Succesfully started.

[WARNING] 20:50:21.602	Force stopping due to user.


20:50:21.603	Waiting for threads to finish.
20:50:22.126	Closing database connection.
20:50:22.127	Closing database connection.
20:50:22.129	Cleaning GPIO pins.
20:50:22.129	Stopped.
********************

20:51:03.052	Finding local database @: './dat/data.db'
20:51:03.053	Found and connected.
20:51:03.054	Verifying tables.
20:51:03.056			'light' created.
20:51:03.056			'acceleration' created.
20:51:03.057			'global_position' created.
20:51:03.057			'air_pressure' created.
20:51:03.057			'sound' created.
20:51:03.058			'air_quality' created.
20:51:03.058	Starting.
20:51:03.059	Initilizing devices...
20:51:04.061		TSL2561: Powering ON.
20:51:04.067			TSL2561: Set to NORMAL_CLOCK_RATE.
20:51:04.072		MMA8451: Powering ON.
20:51:04.073			MMA8451: Set to BW_RATE_400HZ_BYTE.
20:51:04.475		Establishing communication with GPS.
20:51:04.481		Established.
20:51:04.482		MPL3115A2: Powering ON.
20:51:04.497		SGP30: Powering ON.
20:51:05.038	Done.
20:51:05.039	Succesfully started.

[WARNING] 20:51:06.948	Force stopping due to user.


20:51:06.996	Waiting for threads to finish.
20:51:07.060	Closing database connection.
20:51:07.061	Closing database connection.
20:51:07.062	Cleaning GPIO pins.
20:51:07.063	Stopped.
********************

20:51:15.330	Finding local database @: './dat/data.db'
20:51:15.330	Found and connected.
20:51:15.331	Verifying tables.
20:51:15.333			'light' created.
20:51:15.333			'acceleration' created.
20:51:15.333			'global_position' created.
20:51:15.334			'air_pressure' created.
20:51:15.334			'sound' created.
20:51:15.334			'air_quality' created.
20:51:15.335	Starting.
20:51:15.336	Initilizing devices...
20:51:16.338		TSL2561: Powering ON.
20:51:16.343			TSL2561: Set to NORMAL_CLOCK_RATE.
20:51:16.349		MMA8451: Powering ON.
20:51:16.350			MMA8451: Set to BW_RATE_400HZ_BYTE.
20:51:16.749		Establishing communication with GPS.
20:51:16.755		Established.
20:51:16.755		MPL3115A2: Powering ON.
20:51:16.771		SGP30: Powering ON.
20:51:17.314	Done.
20:51:17.315	Succesfully started.

[WARNING] 20:51:20.071	Force stopping due to user.


20:51:20.072	Waiting for threads to finish.
20:51:20.574	Closing database connection.
20:51:20.575	Closing database connection.
20:51:20.576	Cleaning GPIO pins.
20:51:20.577	Stopped.
********************

20:52:04.956	Finding local database @: './dat/data.db'
20:52:04.957	Found and connected.
20:52:04.958	Verifying tables.
20:52:04.959			'light' created.
20:52:04.960			'acceleration' created.
20:52:04.960			'global_position' created.
20:52:04.961			'air_pressure' created.
20:52:04.961			'sound' created.
20:52:04.961			'air_quality' created.
20:52:04.962	Starting.
20:52:04.963	Initilizing devices...
20:52:05.964		TSL2561: Powering ON.
20:52:05.970			TSL2561: Set to NORMAL_CLOCK_RATE.
20:52:05.976		MMA8451: Powering ON.
20:52:05.976			MMA8451: Set to BW_RATE_400HZ_BYTE.
20:52:06.376		Establishing communication with GPS.
20:52:06.381		Established.
20:52:06.382		MPL3115A2: Powering ON.
20:52:06.397		SGP30: Powering ON.
20:52:06.941	Done.
20:52:06.941	Succesfully started.

[WARNING] 20:52:08.485	Force stopping due to user.


20:52:08.509	Waiting for threads to finish.
20:52:08.890	Closing database connection.
20:52:08.890	Closing database connection.
20:52:08.892	Cleaning GPIO pins.
20:52:08.892	Stopped.
********************

20:52:24.646	Finding local database @: './dat/data.db'
20:52:24.646	Found and connected.
20:52:24.647	Verifying tables.
20:52:24.649			'light' created.
20:52:24.649			'acceleration' created.
20:52:24.650			'global_position' created.
20:52:24.650			'air_pressure' created.
20:52:24.650			'sound' created.
20:52:24.651			'air_quality' created.
20:52:24.651	Starting.
20:52:24.652	Initilizing devices...
20:52:25.654		TSL2561: Powering ON.
20:52:25.660			TSL2561: Set to NORMAL_CLOCK_RATE.
20:52:25.665		MMA8451: Powering ON.
20:52:25.666			MMA8451: Set to BW_RATE_400HZ_BYTE.
20:52:26.066		Establishing communication with GPS.
20:52:26.071		Established.
20:52:26.072		MPL3115A2: Powering ON.
20:52:26.088		SGP30: Powering ON.
20:52:26.630	Done.
20:52:26.631	Succesfully started.

[WARNING] 20:52:29.024	Force stopping due to user.


20:52:29.025	Waiting for threads to finish.
20:52:29.212	Closing database connection.
20:52:29.213	Closing database connection.
20:52:29.214	Cleaning GPIO pins.
20:52:29.215	Stopped.
********************

20:53:02.120	Finding local database @: './dat/data.db'
20:53:02.120	Found and connected.
20:53:02.121	Verifying tables.
20:53:02.123			'light' created.
20:53:02.123			'acceleration' created.
20:53:02.124			'global_position' created.
20:53:02.124			'air_pressure' created.
20:53:02.124			'sound' created.
20:53:02.125			'air_quality' created.
20:53:02.125	Starting.
20:53:02.126	Initilizing devices...
20:53:03.128		TSL2561: Powering ON.
20:53:03.134			TSL2561: Set to NORMAL_CLOCK_RATE.
20:53:03.139		MMA8451: Powering ON.
20:53:03.140			MMA8451: Set to BW_RATE_400HZ_BYTE.
20:53:03.540		Establishing communication with GPS.
20:53:03.545		Established.
20:53:03.546		MPL3115A2: Powering ON.
20:53:03.561		SGP30: Powering ON.
20:53:04.104	Done.
20:53:04.105	Succesfully started.

[WARNING] 20:53:08.011	Force stopping due to user.


20:53:08.012	Waiting for threads to finish.
20:53:08.035	Closing database connection.
20:53:08.036	Closing database connection.
20:53:08.037	Cleaning GPIO pins.
20:53:08.038	Stopped.
********************

20:53:22.366	Finding local database @: './dat/data.db'
20:53:22.366	Found and connected.
20:53:22.367	Verifying tables.
20:53:22.369			'light' created.
20:53:22.370			'acceleration' created.
20:53:22.370			'global_position' created.
20:53:22.370			'air_pressure' created.
20:53:22.371			'sound' created.
20:53:22.371			'air_quality' created.
20:53:22.371	Starting.
20:53:22.372	Initilizing devices...
20:53:23.374		TSL2561: Powering ON.
20:53:23.380			TSL2561: Set to NORMAL_CLOCK_RATE.
20:53:23.386		MMA8451: Powering ON.
20:53:23.387			MMA8451: Set to BW_RATE_400HZ_BYTE.
20:53:23.788		Establishing communication with GPS.
20:53:23.794		Established.
20:53:23.795		MPL3115A2: Powering ON.
20:53:23.810		SGP30: Powering ON.
20:53:24.352	Done.
20:53:24.353	Succesfully started.

[WARNING] 20:53:26.604	Force stopping due to user.


20:53:26.626	Waiting for threads to finish.
20:53:27.009	Closing database connection.
20:53:27.010	Closing database connection.
20:53:27.011	Cleaning GPIO pins.
20:53:27.012	Stopped.
********************

20:54:16.569	Finding local database @: './dat/data.db'

[WARNING] 20:54:16.570	Not found. Creating new database...

20:54:16.571		Creating tables:
20:54:16.585			'light' created.
20:54:16.596			'acceleration' created.
20:54:16.607			'global_position' created.
20:54:16.619			'air_pressure' created.
20:54:16.630			'sound' created.
20:54:16.641			'air_quality' created.
20:54:16.642	Starting.
20:54:16.643	Initilizing devices...
20:54:17.645		TSL2561: Powering ON.
20:54:17.650			TSL2561: Set to NORMAL_CLOCK_RATE.
20:54:17.656		MMA8451: Powering ON.
20:54:17.656			MMA8451: Set to BW_RATE_400HZ_BYTE.
20:54:18.056		Establishing communication with GPS.
20:54:18.061		Established.
20:54:18.062		MPL3115A2: Powering ON.
20:54:18.077		SGP30: Powering ON.
20:54:18.623	Done.
20:54:18.624	Succesfully started.

[WARNING] 20:54:20.439	Force stopping due to user.


20:54:20.440	Waiting for threads to finish.
20:54:20.696	Closing database connection.
20:54:20.697	Closing database connection.
20:54:20.698	Cleaning GPIO pins.
20:54:20.699	Stopped.
********************

20:54:48.368	Finding local database @: './dat/data.db'
20:54:48.369	Found and connected.
20:54:48.370	Verifying tables.
20:54:48.371			'light' created.
20:54:48.372			'acceleration' created.
20:54:48.372			'global_position' created.
20:54:48.373			'air_pressure' created.
20:54:48.373			'sound' created.
20:54:48.373			'air_quality' created.
20:54:48.374	Starting.
20:54:48.374	Initilizing devices...
20:54:49.376		TSL2561: Powering ON.
20:54:49.382			TSL2561: Set to NORMAL_CLOCK_RATE.
20:54:49.388		MMA8451: Powering ON.
20:54:49.388			MMA8451: Set to BW_RATE_400HZ_BYTE.
20:54:49.788		Establishing communication with GPS.
20:54:49.793		Established.
20:54:49.794		MPL3115A2: Powering ON.
20:54:49.809		SGP30: Powering ON.
20:54:50.326	Done.
20:54:50.327	Succesfully started.

[WARNING] 20:54:52.554	Force stopping due to user.


20:54:52.561	Waiting for threads to finish.
20:54:53.159	Closing database connection.
20:54:53.160	Closing database connection.
20:54:53.161	Cleaning GPIO pins.
20:54:53.162	Stopped.
********************

20:56:20.572	Finding local database @: './dat/data.db'
20:56:20.573	Found and connected.
20:56:20.573	Verifying tables.
20:56:20.575			'light' created.
20:56:20.576			'acceleration' created.
20:56:20.576			'global_position' created.
20:56:20.576			'air_pressure' created.
20:56:20.577			'sound' created.
20:56:20.577			'air_quality' created.
20:56:20.577	Starting.
20:56:20.578	Initilizing devices...
20:56:21.580		TSL2561: Powering ON.
20:56:21.586			TSL2561: Set to NORMAL_CLOCK_RATE.
20:56:21.591		MMA8451: Powering ON.
20:56:21.592			MMA8451: Set to BW_RATE_400HZ_BYTE.
20:56:21.992		Establishing communication with GPS.
20:56:21.997		Established.
20:56:21.998		MPL3115A2: Powering ON.
20:56:22.013		SGP30: Powering ON.
20:56:22.557	Done.
20:56:22.558	Succesfully started.

[WARNING] 20:56:28.994	Force stopping due to user.


20:56:29.004	Waiting for threads to finish.
20:56:29.141	Closing database connection.
20:56:29.142	Closing database connection.
20:56:29.143	Cleaning GPIO pins.
20:56:29.144	Stopped.
********************

20:57:43.627	Finding local database @: './dat/data.db'

[WARNING] 20:57:43.627	Not found. Creating new database...

20:57:43.628		Creating tables:
20:57:43.642			'light' created.
20:57:43.653			'acceleration' created.
20:57:43.664			'global_position' created.
20:57:43.675			'air_pressure' created.
20:57:43.687			'sound' created.
20:57:43.698			'air_quality' created.
20:57:43.698	Starting.
20:57:43.699	Initilizing devices...
20:57:44.701		TSL2561: Powering ON.
20:57:44.707			TSL2561: Set to NORMAL_CLOCK_RATE.
20:57:44.712		MMA8451: Powering ON.
20:57:44.713			MMA8451: Set to BW_RATE_400HZ_BYTE.
20:57:45.113		Establishing communication with GPS.
20:57:45.118		Established.
20:57:45.119		MPL3115A2: Powering ON.
20:57:45.135		SGP30: Powering ON.
20:57:45.678	Done.
20:57:45.678	Succesfully started.

[WARNING] 20:57:47.189	Force stopping due to user.


20:57:47.206	Waiting for threads to finish.
20:57:47.683	Closing database connection.
20:57:47.684	Closing database connection.
20:57:47.685	Cleaning GPIO pins.
20:57:47.686	Stopped.
********************

21:00:55.034	Finding local database @: './dat/data.db'
21:00:55.034	Found and connected.
21:00:55.035	Verifying tables.
21:00:55.037			'light' created.
21:00:55.037			'acceleration' created.
21:00:55.037			'global_position' created.
21:00:55.038			'air_pressure' created.
21:00:55.038			'sound' created.
21:00:55.038			'air_quality' created.
21:00:55.039	Starting.
21:00:55.040	Initilizing devices...
21:00:56.042		TSL2561: Powering ON.
21:00:56.047			TSL2561: Set to NORMAL_CLOCK_RATE.
21:00:56.053		MMA8451: Powering ON.
21:00:56.053			MMA8451: Set to BW_RATE_400HZ_BYTE.
21:00:56.453		Establishing communication with GPS.
21:00:56.459		Established.
21:00:56.460		MPL3115A2: Powering ON.
21:00:56.475		SGP30: Powering ON.
21:00:57.018	Done.
21:00:57.019	Succesfully started.

[WARNING] 21:00:59.024	Force stopping due to user.


21:00:59.073	Waiting for threads to finish.
21:00:59.614	Closing database connection.
21:00:59.614	Closing database connection.
21:00:59.616	Cleaning GPIO pins.
21:00:59.616	Stopped.
********************

21:05:28.965	Finding local database @: './dat/data.db'

[WARNING] 21:05:28.965	Not found. Creating new database...

21:05:28.966		Creating tables:
21:05:28.980			'light' created.
21:05:28.991			'acceleration' created.
21:05:29.002			'global_position' created.
21:05:29.013			'air_pressure' created.
21:05:29.025			'sound' created.
21:05:29.036			'air_quality' created.
21:05:29.037	Starting.
21:05:29.038	Initilizing devices...
21:05:30.040		TSL2561: Powering ON.
21:05:30.045			TSL2561: Set to NORMAL_CLOCK_RATE.
21:05:30.051		MMA8451: Powering ON.
21:05:30.052			MMA8451: Set to BW_RATE_400HZ_BYTE.
21:05:30.453		Establishing communication with GPS.
21:05:30.458		Established.
21:05:30.459		MPL3115A2: Powering ON.
21:05:30.475		SGP30: Powering ON.
21:05:31.016	Done.
21:05:31.017	Succesfully started.

[WARNING] 21:05:38.483	Force stopping due to user.


21:05:38.484	Waiting for threads to finish.
21:05:38.685	Closing database connection.
21:05:38.686	Closing database connection.
21:05:38.687	Cleaning GPIO pins.
21:05:38.687	Stopped.
********************

21:06:09.137	Finding local database @: './dat/data.db'
21:06:09.137	Found and connected.
21:06:09.138	Verifying tables.
21:06:09.140			'light' created.
21:06:09.140			'acceleration' created.
21:06:09.141			'global_position' created.
21:06:09.141			'air_pressure' created.
21:06:09.141			'sound' created.
21:06:09.142			'air_quality' created.
21:06:09.142	Starting.
21:06:09.143	Initilizing devices...
21:06:10.145		TSL2561: Powering ON.
21:06:10.151			TSL2561: Set to NORMAL_CLOCK_RATE.
21:06:10.156		MMA8451: Powering ON.
21:06:10.157			MMA8451: Set to BW_RATE_400HZ_BYTE.
21:06:10.557		Establishing communication with GPS.
21:06:10.562		Established.
21:06:10.563		MPL3115A2: Powering ON.
21:06:10.578		SGP30: Powering ON.
21:06:11.121	Done.
21:06:11.122	Succesfully started.

[WARNING] 21:06:13.379	Force stopping due to user.


21:06:13.478	Waiting for threads to finish.
21:06:13.524	Closing database connection.
21:06:13.525	Closing database connection.
21:06:13.526	Cleaning GPIO pins.
21:06:13.527	Stopped.
********************

21:06:31.749	Finding local database @: './dat/data.db'

[WARNING] 21:06:31.750	Not found. Creating new database...

21:06:31.751		Creating tables:
21:06:31.779			'light' created.
21:06:31.805			'acceleration' created.
21:06:31.830			'global_position' created.
21:06:31.855			'air_pressure' created.
21:06:31.882			'sound' created.
21:06:31.893			'air_quality' created.
21:06:31.893	Starting.
21:06:31.894	Initilizing devices...
21:06:32.896		TSL2561: Powering ON.
21:06:32.902			TSL2561: Set to NORMAL_CLOCK_RATE.
21:06:32.907		MMA8451: Powering ON.
21:06:32.908			MMA8451: Set to BW_RATE_400HZ_BYTE.
21:06:33.310		Establishing communication with GPS.
21:06:33.316		Established.
21:06:33.317		MPL3115A2: Powering ON.
21:06:33.332		SGP30: Powering ON.
21:06:33.873	Done.
21:06:33.874	Succesfully started.

[WARNING] 21:06:47.697	Force stopping due to user.


21:06:47.709	Waiting for threads to finish.
21:06:48.180	Closing database connection.
21:06:48.181	Closing database connection.
21:06:48.182	Cleaning GPIO pins.
21:06:48.183	Stopped.
********************

21:07:49.380	Finding local database @: './dat/data.db'
21:07:49.381	Found and connected.
21:07:49.382	Verifying tables.
21:07:49.383			'light' created.
21:07:49.384			'acceleration' created.
21:07:49.384			'global_position' created.
21:07:49.385			'air_pressure' created.
21:07:49.385			'sound' created.
21:07:49.385			'air_quality' created.
21:07:49.386	Starting.
21:07:49.387	Initilizing devices...
21:07:50.389		TSL2561: Powering ON.
21:07:50.394			TSL2561: Set to NORMAL_CLOCK_RATE.
21:07:50.400		MMA8451: Powering ON.
21:07:50.401			MMA8451: Set to BW_RATE_400HZ_BYTE.
21:07:50.802		Establishing communication with GPS.
21:07:50.808		Established.
21:07:50.808		MPL3115A2: Powering ON.
21:07:50.824		SGP30: Powering ON.
21:07:51.365	Done.
21:07:51.366	Succesfully started.

[WARNING] 21:07:54.277	Force stopping due to user.


21:07:54.302	Waiting for threads to finish.
21:07:54.681	Closing database connection.
21:07:54.682	Closing database connection.
21:07:54.684	Cleaning GPIO pins.
21:07:54.684	Stopped.
********************

